{
"animals":[
           {
           "name":"Cat",
           "picture":"cat.jpg",
           "description":"Cats will stand up and walk on their hind legs, their front limbs spread out stiffly, claws unfurled, and wave their upper bodies around as they growl. They can appear nearly twice their size by setting every hair on their bodies on end with the help of hundreds of tiny muscles under the skin. They will arch their backs, snarl, hiss and spit in an attempt to confuse and disorient. But the fearsome display is never just a bluff, as the brave little cat will take on cougars, wolves and bears if need be, leaping right on top and scratching and biting relentlessly. House cats often loose in confrontations with larger predators, and will avoid most fights by scooting up a tree, but there are many video-cam examples of their bravery across the internet, and yes, bears will turn and flee from particularly fearless kitty cats."
           },
           {
           "name":"Cheetah",
           "picture":"cheetah.jpg",
           "description":"Quicker off the mark than a Lamborghini, the cheetah is the fastest animal on Earth, capable of going from a dead standstill to sixty miles per hour in 3 seconds. If need be, they can maintain 70 miles per hour for the length of 10 football fields before they overheat and must stop.Hunting by sight they will choose a gazelle, rabbit or young wildebeast and than run the target down, tripping it with a paw swipe or a body check and closing the deal with a choke hold."
           },
           {
           "name":"Koala",
           "picture":"koala.jpg",
           "description":"The koala bear is an adorable, tree dwelling marsupial that is perhaps the most popular animal native to Australia. Koalas live in Eucalypt forests, spending the vast majority of their lives in just a handful of eucalyptus trees, also known as gum trees. These animals are nocturnal and spend four to six hours a night quietly munching on Eucalyptus leaves. In the course of a single evening, a 30 pound koala consumes about 2 pounds of leaves."
           },
           {
           "name":"Deer",
           "picture":"deer.jpg",
           "description":"The reindeer is a hardy, ruggedly built deer which lives in the arctic and subarctic regions of the northern hemisphere. Thriving in the tundra of Europe, Asia and North America, there are numerous subspecies of reindeer with variations in size, color and antler appearance. Being a species of deer, these animals have antlers, not horns. Antlers differ from horns in that they are not permanent and are regularly shed and regrown."
           },
           {
           "name":"Dog",
           "picture":"dog.jpg",
           "description":"Our magnificent partner in crime, the domestic dog, has been living and bonding with human beings for 12,000 years or more. Although they work beside, and for us as well, their value to us as enriching companions has allowed them to flourish, and caused modern humans to devote extraordinary resources to their well-being. Once considered to be a subspecies of grey wolf, recent DNA research shows that dogs and wolves have been evolving separately for more than 30,000 years, and that the last common ancestor, a small (perhaps 40 pounds) Eurasian wolf, is now extinct."
           },
           {
           "name":"Dolphin",
           "picture":"dolphin.jpg",
           "description":"As members of the whale family, dolphins are fully aquatic mammals that spend their entire lives underwater. They only need to breath air from the surface once every 5 to 10 minutes using the blow hole at the top of their heads which is like a large nostril. There are almost forty different species of dolphins with the killer whale being the largest.The bottlenose dolphin is the species of \"Flipper\" fame that we are most familiar with, and the species that is regularly referred to as simply \"dolphin\"."
           },
           {
           "name":"Eagle",
           "picture":"eagle.jpg",
           "description":"Eagles have unusual eyes. They are very large in proportion to their heads and have extremely large pupils. Eagles’ eyes have a million light-sensitive cells per square mm of retina, five times more that a human’s 200,000. While humans see just three basic colours, eagles see five. These adaptations gives eagles extremely keen eyesight and enable them to spot even well-camouflaged potential prey from a very long distance. In fact the eagles’ vision is among the sharpest of any animal and studies suggest that some eagles can spot an animal the size of a rabbit up to two miles away!"
           },
           {
           "name":"Elephant",
           "picture":"elephant.jpg",
           "description":"Scattered throughout sub-Saharan Africa and South and Southeast Asia, elephants are the world´s largest land animals. Traditionally, two species of these amazing giants are recognized, the African elephant and the Asian elephant. Because of numerous reasons such as poaching or habitat destruction, the world´s population of elephants has been drastically decreasing. African elephants are listed as vulnerable by the International Union for Conservation of Nature, while the Asian elephant is classed as endangered."
           },
           {
           "name":"Fox",
           "picture":"fox.jpg",
           "description":"The red fox is the most wide-spread carnivore in the world, living in every region of the Northern Hemisphere including Central America, and having been introduced by humans to Australia, where they are so successful they are considered a major pest.The red fox in particular is extremely skilled at adapting to almost any environment. They have succeeded and thrived in close proximity to human beings and there are even some sub-species of red fox that live in heavy urban environments, taking advantage of their naturally nocturnal tendencies."
           },
           {
           "name":"Horse",
           "picture":"horse.jpg",
           "description":"One of the more famous horse facts is that you can approximate a horses age by looking at its teeth, which is where the saying \"don't look a gift horse in the mouth\" comes from. The courageous and beautiful horse was domesticated in Asia over 5,000 years ago in the area now occupied by the country of Kazakhstan.They were most likely originally kept for their meat, but skeletal remains from 3,500 B.C. suggest evidence of bit use, and by 2,000 B.C. they were pulling sleds and chariots throughout Asia and Europe. But consider that 5,000 years ago the horse was a herbivorous, nomadic, herd animal, no doubt preyed upon by large predators such as wolves."
           },
           {
           "name":"Kangaroo",
           "picture":"kangaroo.jpg",
           "description":"Kangaroos are members of the zoological family macropodidae or \"macropods\". The word macropod is derived from Ancient Greek language meaning \"long foot\". The family also includes the wallaby and the wallaroo, but the term \"kangaroo\" generally refers to three species of large Australian macropods within the genus macropus, the red kangaroo, and the Eastern and Western grey kangaroos. Kangaroos live in groups of 5 to 40 individuals called \"mobs\". They can be found throughout much of Australia, particularly the arid interior grasslands commonly called the \"outback\"."
           },
           {
           "name":"Lemur",
           "picture":"lemur.jpg",
           "description":"One of the coolest lemur facts is that they can easily jump 6 times their body length. Lemurs are woolly-furred, long-tailed, arboreal animals that are found only on the island of Madagascar off the Eastern coast of Africa. There are more than 30 different species and dozens of subspecies of lemurs, ranging in size from the 1 ounce mouse lemur, to the 20 pound Indri.These creatures evolved undisturbed in an isolated environment for millions of years, and thrived in their island paradise until human beings came to Madagascar about 2000 years ago. Since then, people have destroyed over 90 percent of the natural forests, leaving the lemurs, as a group, the most endangered mammals in the world."
           },
           {
           "name":"Mouse",
           "picture":"mouse.jpg",
           "description":"A mouse is a small rodent with a pointed nose, furry round body, large ears and a long, often hairless, tail. There are hundreds of types of mice, divided into subfamilies of either Old World or New World species. Common varieties include deer mouse, house mouse, field mouse, wood mouse, dormouse, spiny mouse and zebra mouse.Though some people talk about mice and rats as if they were the same thing, they are actually different types of animals in the rodent family. Rats generally are larger than mice, and they can be bald, scaly and cylinder-shaped."
           },
           {
           "name":"Owl",
           "picture":"owl.jpg",
           "description":"Many owl species have asymmetrical ears. When located at different heights on the owl’s head, their ears are able to pinpoint the location of sounds in multiple dimensions. Ready, aim, strike. The eyes of an owl are not true “eyeballs.” Their tube-shaped eyes are completely immobile, providing binocular vision which fully focuses on their prey and boosts depth perception."
           },
           {
           "name":"Panda",
           "picture":"panda.jpg",
           "description":"The giant panda is one of the world's eight species of true bears. Although for a number of decades there was some controversy over whether the panda was actually a bear at all, the recent consensus is that the panda is, in fact, all bear. Some scientists argued that the giant panda and the red panda which share many characteristics were both more closely related to raccoons than bears. Closer study of the giant pandas molecular structure, however, puts them in the family ursidae - the true bears."
           },
           {
           "name":"Parrot",
           "picture":"parrot.jpg",
           "description":"The parrots are a broad order of more than 350 birds. Macaws, Amazons, lorikeets, lovebirds, cockatoos and many others are all considered parrots. Though there is great diversity among these birds, there are similarities as well. All parrots have curved beaks and all are zygodactyls, meaning they have four toes on each foot, two pointing forward and two projecting backward. Most parrots eat fruit, flowers, buds, nuts, seeds, and some small creatures such as insects."
           },
           {
           "name":"Pig",
           "picture":"pig.jpg",
           "description":"One of the most useful pig facts is that pigs do not have many sweat glands, so the term \"sweats like a pig\" is quite inaccurate! All pigs and pig species are descended from a rabbit-sized, plant-eating creature called diacodexis, which could be found about 50 million years ago throughout Europe, Asia and North America. Today, there are 10 different species of pigs that can be found on every continent except Antarctica, including the amazing looking warthog found in Africa, and the wild boar, also known as the Eurasian wild pig, found throughout much of Europe and Southern Asia."
           },
           {
           "name":"Rabbit",
           "picture":"rabbit.jpg",
           "description":"The rabbit is one of the most recognizable and well-loved creatures in the animal kingdom. Domesticated for thousands of years, rabbits are bred for their meat, their fur, and of course, for companionship.There are an estimated 14 million pet rabbits in the world, many of whom live in the classic outdoor wood and chicken-wire hutch, some living in indoor cages, and some clever bunnies learning to use a litter pan and getting the run of the house."
           },
           {
           "name":"Tiger",
           "picture":"tiger.jpg",
           "description":"The tiger is, on average, the largest of the big cats, with the African lion a close second. A mature Siberian tiger can top out at 11 feet long and close to 700 pounds. Tigers once inhabited most of Asia, from the tropical islands to Siberia. Today they are restricted to small patches of territory and very limited populations of each of the 6 living subspecies. The largest of the tigers, the Siberian or Amur tiger, lives in the coniferous forests of Russia where its thick fur and full neck ruff keep it warm in deep snow."
           },
           {
           "name":"Wolf",
           "picture":"wolf.jpg",
           "description":"One of the least known wolf facts is that wolf pups are born with blue eyes. The wolf is the largest species in the dog or canid family. There are two species of wolf, the grey wolf which is found throughout the northern hemisphere, and the red wolf, which is limited to a tiny population in the state of North Carolina. There are several subspecies of grey wolf in North America, and another 7 to 12 subspecies found in Europe and Asia. These subspecies vary only slightly in size and color, mostly as a result of the variations in climate, habitat and diet in the different locations they occur."
           },
           {
           "name":"Zebra",
           "picture":"zebra.jpg",
           "description":"A glorious fixture of the African landscape, the zebra is a very flashy member of the normally mousy-colored horse family. Sporting a robust body of bold stripes, the zebra spends its busy life on the move seeking the best grazing in the mostly dusty world of the African savanna. Because its skin is dark, many experts suggest that the zebra is a black (sometimes brown) furred animal with white stripes, while others will argue that the zebra has black stripes on a white field, pointing out the animals white undersides."
           }
        ]
}
